<?xml version="1.0" encoding="utf-8"?>
<!-- Generator: Adobe Illustrator 22.1.0, SVG Export Plug-In . SVG Version: 6.00 Build 0)  -->
<svg version="1.1" id="Ebene_1" xmlns="http://www.w3.org/2000/svg" xmlns:xlink="http://www.w3.org/1999/xlink" x="0px" y="0px"
	 viewBox="0 0 1099 651.5" style="enable-background:new 0 0 1099 651.5;" xml:space="preserve">
<style type="text/css">
	.st0{fill:#989898;}
	.st1{fill-rule:evenodd;clip-rule:evenodd;fill:#989898;}
	.st2{fill:#C1C1C1;}
	.st3{fill:#DCDCDC;}
</style>
<g>
	<g>
		<polygon class="st0" points="539.9,384.5 503.5,384.5 503.5,165.1 539.9,165.1 539.9,384.5 		"/>
	</g>
	<g>
		<polygon class="st0" points="609.3,384.5 572.9,384.5 572.9,224.2 609.3,224.2 609.3,384.5 		"/>
	</g>
	<g>
		<polygon class="st0" points="609.3,201.3 572.9,201.3 572.9,165.1 609.3,165.1 609.3,201.3 		"/>
	</g>
	<g>
		<path class="st0" d="M677.8,246.1c14.8-16.3,45.8-26.3,77.5-26.3c70.6,0,94.1,23.3,94.1,62.5v102.2H813v-99.2
			c0-24.5-12.2-43.6-60.1-43.6c-47.5,0-74.1,22.2-75.1,49.9v93h-36.4V224.2h36.4V246.1L677.8,246.1z"/>
	</g>
	<g>
		<path class="st0" d="M300.3,246.1c14.8-16.3,45.8-26.3,77.5-26.3c70.6,0,94.1,23.3,94.1,62.5v102.2h-36.4v-99.2
			c0-24.5-12.2-43.6-60.1-43.6c-47.5,0-74.1,22.2-75.1,49.9v93h-36.4V224.2h36.4V246.1L300.3,246.1z"/>
	</g>
	<g>
		<path class="st0" d="M7.2,304.8c0-46.6,43.7-84.6,120.6-84.6c77,0,120.6,37.9,120.6,84.6c0,46.7-43.7,84.6-120.6,84.6
			C50.9,389.4,7.2,351.4,7.2,304.8L7.2,304.8z M212.1,304.8c0-30.7-27.1-62.7-84.2-62.7c-57.1,0-84.2,32-84.2,62.7
			c0,30.8,27.1,62.7,84.2,62.7C185,367.5,212.1,335.5,212.1,304.8L212.1,304.8z M980.2,220.2c58.1,0,116,25.8,112.3,92.7h-191
			c2.1,25,24.1,54.6,78.8,54.6c31.5,0,62.9-7.6,76.1-39.4h36.7c-18.8,50.6-63.2,61.3-112.8,61.3c-80.1,0-115.3-38.5-115.3-84.6
			C864.8,262,900,220.2,980.2,220.2L980.2,220.2z M980.2,242c-46.3,0-72.1,23.8-78.2,48.9h154C1052.7,265.9,1026.4,242,980.2,242
			L980.2,242z"/>
	</g>
</g>
<g>
	<path class="st1" d="M80.5,629.5c0,11-6.2,13.5-13.8,13.5H34.6c-7.6,0-13.8-2.5-13.8-13.5v-23.8c0-11,6.2-13.5,13.8-13.5h32.2
		c7.6,0,13.8,2.5,13.8,13.5V629.5L80.5,629.5z M12.9,626.2c0,16,5,23.7,20.9,23.7h33.8c15.9,0,20.9-7.7,20.9-23.7v-17.3
		c0-16-5-23.7-20.9-23.7H33.8c-15.9,0-20.9,7.7-20.9,23.7V626.2L12.9,626.2z"/>
	<path class="st0" d="M102.2,649.3h7v-25.4c0-10.5,3.7-13.8,20-13.8h1.8c13.5,0,15.2,4.3,15.2,10.9v28.4h7v-30.2
		c0-8-4.1-15.1-17.2-15.1h-10.4c-8.7,0-14.1,1.5-16.7,8.4h-0.2v-7.7h-6.5V649.3L102.2,649.3z"/>
	<polygon class="st0" points="168.2,649.3 175.2,649.3 175.2,585.9 168.2,585.9 168.2,649.3 	"/>
	<path class="st1" d="M191.2,649.3h7v-44.6h-7V649.3L191.2,649.3z M191.2,594.1h7v-8.2h-7V594.1L191.2,594.1z"/>
	<path class="st0" d="M213.2,649.3h7v-25.4c0-10.5,3.7-13.8,20-13.8h1.8c13.5,0,15.2,4.3,15.2,10.9v28.4h7v-30.2
		c0-8-4.1-15.1-17.2-15.1h-10.4c-8.7,0-14.1,1.5-16.7,8.4h-0.2v-7.7h-6.5V649.3L213.2,649.3z"/>
	<path class="st1" d="M322.3,622.1h-39c0.6-10.2,3.2-12.1,14.3-12.1h10.2c11.3,0,14.5,4.6,14.5,9.1V622.1L322.3,622.1z M276.4,631.7
		c0,16.4,10.4,18.3,19.4,18.3h12.6c13,0,20.8-3.1,20.8-13.3v-0.9h-7c-0.4,6.8-4,8-12.7,8H300c-12.1,0-16.7-2.6-16.7-12.8v-2.8h45.9
		v-5c0-15.9-9-19.3-21.5-19.3h-11.2c-9.9,0-20.3,1.8-20.3,18V631.7L276.4,631.7z"/>
	<path class="st0" d="M380.9,634c0,13.8,10.2,16,21.8,16h22c11.7,0,23.6-1.1,23.6-16.7v-4.1c0-10.8-6.5-15.6-21.9-15.6h-23.5
		c-12.4,0-14.6-2.5-14.6-10.1c0-10.4,5.4-11.3,20.7-11.3h8.4c20.8,0,21.8,1.8,22,11.9h7.5v-2.2c0-11.3-4.9-16.7-24.6-16.7h-17.1
		c-16.4,0-24.3,3.2-24.3,17.7c0,16.8,7.9,18.4,32.2,18.4H428c9.9,0,12.8,2,12.8,10c0,9.1-3.4,11.7-14.9,11.7h-24.6
		c-9.9,0-13-3-13-9.2v-4.5h-7.4V634L380.9,634z"/>
	<path class="st1" d="M460.7,631.8c0,14.7,9.6,18.1,22.8,18.1h10c13.2,0,22.8-3.4,22.8-18.1V622c0-14.7-9.6-18.1-22.8-18.1h-10
		c-13.2,0-22.8,3.4-22.8,18.1V631.8L460.7,631.8z M509.3,631.4c0,10.4-5.7,12.4-13.8,12.4h-14.2c-8.1,0-13.8-2-13.8-12.4v-8.9
		c0-10.4,5.7-12.4,13.8-12.4h14.2c8.1,0,13.8,2,13.8,12.4V631.4L509.3,631.4z"/>
	<path class="st0" d="M533.7,649.3h7v-38.5h19.7v-6.1h-19.7v-5.5c0-3.9,2-7.1,7.2-7.1h12.5v-6.1h-13c-7.6,0-13.6,4.2-13.6,14.8v3.9
		h-9v6.1h9V649.3L533.7,649.3z"/>
	<path class="st0" d="M573.7,635.9c0,7.3,3.1,14.1,16.1,14.1h3.8c15.1,0,15.9-7.1,15.9-16V629h-5.7v3.3c0,9.4-1.5,11.5-10.7,11.5
		H591c-7.6,0-10.3-2.5-10.3-10.9v-22.2h27.6v-6.1h-27.6V594h-7v10.6h-9.1v6.1h9.1V635.9L573.7,635.9z"/>
	<polygon class="st0" points="631.8,649.3 641.4,649.3 654.6,610.8 667.8,649.3 677.4,649.3 696.2,604.6 688.9,604.6 672.8,643.1 
		659.6,604.6 649.6,604.6 636.5,643.1 620.3,604.6 613,604.6 631.8,649.3 	"/>
	<path class="st1" d="M747,649.3h7v-29.9c0-13.3-8.7-15.4-21.7-15.4h-11c-12.5,0-17.2,3.3-17.2,11.5v2.2h7V616c0-3.7,1.7-6,10.5-6
		h10.2c10.7,0,15.4,1.1,15.4,9.1v8.4h-0.2c-2.4-4.3-5.7-5.3-14.7-5.3h-11.2c-12.1,0-18.8,1.2-18.8,11.4v3c0,8.4,2.7,13.4,13.3,13.4
		h16.7c10.7,0,12.9-1.1,14.7-5.2h0.2V649.3L747,649.3z M747,637.3c0,5.6-4.9,6.6-17.5,6.6h-9.2c-9.6,0-11.2-2.1-11.2-7.1v-1.4
		c0-5.6,2.5-7,11.5-7h10.7c10.7,0,15.7,0.8,15.7,6.9V637.3L747,637.3z"/>
	<path class="st0" d="M767.8,649.3h7v-28.4c0-5.8,3.6-10.9,10.9-10.9h4.3c12.4,0,14.5,1.8,14.5,12.8v1.9h6.5v-5.3
		c0-10.9-4.3-15.5-17.3-15.5h-6.6c-4.8,0-10,1.4-12.6,7.2h-0.2v-6.5h-6.5V649.3L767.8,649.3z"/>
	<path class="st1" d="M864.3,622.1h-39c0.6-10.2,3.2-12.1,14.3-12.1h10.2c11.3,0,14.5,4.6,14.5,9.1V622.1L864.3,622.1z M818.3,631.7
		c0,16.4,10.4,18.3,19.4,18.3h12.6c13,0,20.8-3.1,20.8-13.3v-0.9h-7c-0.4,6.8-4,8-12.7,8H842c-12.2,0-16.7-2.6-16.7-12.8v-2.8h45.9
		v-5c0-15.9-9-19.3-21.5-19.3h-11.2c-9.9,0-20.3,1.8-20.3,18V631.7L818.3,631.7z"/>
	<path class="st1" d="M925.9,649.3h9l7.3-13.4h47l7.3,13.4h9l-34.8-63.4h-9.9L925.9,649.3L925.9,649.3z M985.3,628.9h-39.4l19.7-36
		L985.3,628.9L985.3,628.9z"/>
	<path class="st0" d="M1087.3,617.8h-38v7h30.1v6.4c0,8.7-4.9,11.7-12.8,11.7h-31c-7.6,0-13.8-2.5-13.8-13.5v-23.8
		c0-11,6.2-13.5,13.8-13.5h20.6c19.6,0,22.9,0.9,22.9,12.7h7.5v-2.3c0-14.6-11.3-17.4-21.8-17.4h-30c-15.9,0-20.9,7.7-20.9,23.7
		v17.3c0,16,5,23.7,20.9,23.7h32.7c14.7,0,19.8-6.1,19.8-23.4V617.8L1087.3,617.8z"/>
</g>
<path class="st2" d="M805,285.2c0-11.5-3-19.4-9.3-24.9c-8.2-7.1-22.5-10.6-42.8-10.6c-20.9,0-38.3,4.5-50.4,13.1
	c-10.5,7.4-16.3,17.4-16.7,28.9v92.8v8h-8h-36.4h-8v-8V224.2v-8h8h36.4h8v8v5.1c16.9-10.5,40.9-17,66.2-17.5L554.2,13.9
	c-2.4-2.4-6.2-2.4-8.6,0L344.1,215.4c10.6-2.4,22.1-3.6,33.7-3.6c36,0,61.6,5.9,78.3,18.1c16.1,11.7,23.9,28.9,23.9,52.4v102.2v8h-8
	h-36.4h-8v-8v-99.2c0-11.5-3-19.4-9.3-24.9c-8.2-7.1-22.5-10.6-42.8-10.6c-20.9,0-38.3,4.5-50.4,13.1c-10.5,7.4-16.3,17.4-16.7,28.9
	v12.8l237.2,237.2c2.4,2.4,6.2,2.4,8.6,0L805,290.8V285.2z M547.9,165.1v219.4v8h-8h-36.4h-8v-8V165.1v-8h8h36.4h8V165.1z
	 M617.3,224.2v160.2v8h-8h-36.4h-8v-8V224.2v-8h8h36.4h8V224.2z M617.3,165.1v36.2v8h-8h-36.4h-8v-8v-36.2v-8h8h36.4h8V165.1z"/>
<g>
	<path class="st3" d="M795.7,260.3c-1-0.9-2.1-1.7-3.2-2.4l8.1,8.1C799.2,263.8,797.6,261.9,795.7,260.3z"/>
	<path class="st3" d="M351.1,214L548.4,16.8c0.4-0.4,0.9-0.6,1.5-0.6c0.6,0,1.1,0.2,1.5,0.6L746.6,212c2.9-0.2,5.8-0.3,8.7-0.3
		c0.8,0,1.6,0,2.3,0L557,11.1c-1.9-1.9-4.4-3-7.1-3s-5.2,1-7.1,3L336.5,217.3C341.2,216,346.1,214.9,351.1,214z"/>
	<path class="st3" d="M805,285.2C805,285.2,805,285.2,805,285.2L551.3,538.8c-0.8,0.8-2.2,0.8-2.9,0L308.3,298.8v11.3l234.4,234.4
		c1.9,1.9,4.4,3,7.1,3s5.2-1,7.1-3l248-248V285.2z"/>
</g>
</svg>
